{
  "project_info": {
    "project_number": "107790851008",
    "firebase_url": "https://litugia-11814.firebaseio.com",
    "project_id": "litugia-11814",
    "storage_bucket": "litugia-11814.appspot.com"
  },
  "client": [
    {
      "client_info": {
        "mobilesdk_app_id": "1:107790851008:android:df7a539efadad2c30bc625",
        "android_client_info": {
          "package_name": "com.cancaonova.liturgia"
        }
      },
      "oauth_client": [
        {
          "client_id": "107790851008-7sg92fpj70kii2d9btbmfs3chdkfck21.apps.googleusercontent.com",
          "client_type": 3
        }
      ],
      "api_key": [
        {
          "current_key": "AIzaSyBHjIBgpP52cRAt8Sb1IfNUgkiXACJKNEM"
        }
      ],
      "services": {
        "appinvite_service": {
          "other_platform_oauth_client": [
            {
              "client_id": "107790851008-7sg92fpj70kii2d9btbmfs3chdkfck21.apps.googleusercontent.com",
              "client_type": 3
            },
            {
              "client_id": "107790851008-jcsq244jesddr6pkdmvkc6a57v6c8kmp.apps.googleusercontent.com",
              "client_type": 2,
              "ios_info": {
                "bundle_id": "com.cancaonova.liturgiadiaria",
                "app_store_id": "914272972"
              }
            }
          ]
        }
      }
    }
  ],
  "configuration_version": "1"
}